NLP avec R pour les sciences sociales - 2 Pré-traitements
…
ℹ Use `spec()` to retrieve the full column specification for this data.
ℹ Specify the column types or set `show_col_types = FALSE` to quiet this message.

names(data)

[1] "id"       "auteur"   "date"     "month"    "year"     "note"     "comments"

view(data)
data

# A tibble: 4,388 × 7
      id auteur                   date            month    year  note comments  
   <dbl> <chr>                    <chr>           <chr>   <dbl> <dbl> <chr>     
 1     1 MAQUET Cyril             07 août 2023    août     2023     5 "Comme to…
 2     2 Mme Laurence  Wolff      08 août 2023    août     2023     5 "Le délai…
 3     3 Une nouvelle cliente     07 août 2023    août     2023     5 "Produits…
 4     4 Patricia ALLAMAN         15 août 2023    août     2023     5 "Envoi ra…
 5     5 VPL                      24 juillet 2023 juillet  2023     5 "Expéditi…
 6     6 PHILIPPE GODIN           08 août 2023    août     2023     5 "site sér…
 7     7 Mme MARIA ADILIA PEREIRA 15 août 2023    août     2023     1 "deux sem…
 8     8 Rachel Mattyssen         31 juillet 2023 juillet  2023     5 "Très bie…
 9     9 Estelle Fay              16 juillet 2023 juillet  2023     5 "Enfin un…
10    10 Mme T.                   06 août 2023    août     2023     4 "Satisfai…
# ℹ 4,378 more rows
…
