NLP avec R pour les sciences sociales - 4 Annotations et dépendances syntaxiques
…
ann_token%>%filter(upos=="ADJ"|upos=="NOUN"|upos=="VERB")

# A tibble: 34,232 × 11
   doc_id   sid tid   token    token_with_ws lemma  upos  xpos  feats tid_source
    <int> <int> <chr> <chr>    <chr>         <chr>  <chr> <chr> <chr> <chr>     
 1      1     1 4     super    "super "      super  ADJ   <NA>  Gend… 5         
 2      1     1 5     service  "service"     servi… NOUN  <NA>  Gend… 0         
 3      1     2 2     changez  "changez "    chang… VERB  <NA>  Mood… 0         
 4      1     2 5     peut     "peut "       pouvo… VERB  <NA>  Mood… 2         
 5      1     2 8     cagnotte "cagnotte "   cagnot ADJ   <NA>  Gend… 9         
 6      1     2 9     fidélité "fidélité "   fidél… NOUN  <NA>  Gend… 5         
 7      1     2 11    est      "est"         être   VERB  <NA>  Mood… 9         
 8      1     2 15    dirais   "dirais "     dir    VERB  <NA>  Mood… 11        
 9      1     2 16    inutile  "inutile "    inuti… ADJ   <NA>  Gend… 15        
10      2     1 2     délai    "délai "      délai  NOUN  <NA>  Gend… 0         
# ℹ 34,222 more rows
# ℹ 1 more variable: relation <chr>
…
